0000000000000000000000000000
0111111111111001111111111110
0100000100001001000010000010
0100000100001001000010000010
0100011111111111111111100010
0100010001000000001000100010
0111110001000000001000111110
0000010011111001111100100000
0000010010001001000100100000
0111110010001001000100111110
0100010010001001000100100010
0100011111111111111111100010
0100001001000110001001000010
0100001001011111101001000010
0111111001011111101001111110
0000001001011111101001000000
0000001001000000001001000000
0111111111111111111111111110
0100000000001001000000000010
0100000000001001000000000010
0111111111111001111111111110
0000100100001001000010010000
0000100100001001000010010000
0111100111111111111110011110
0100000000100000010000000010
0100000000100000010000000010
0111100111111001111110011110
0100100100001001000010010010
0100100100001001000010010010
0111111111111001111111111110
0000000000000000000000000000